week14_part2
…
#as. POSIXct stores both a date and time with an associated time zone. The default time zone selected, is the time zone that your computer is set #to which is most often your local time zone
data$Date <- as.POSIXct(data$Date)

# Convert df to a tibble
#because time_decompose require data to be tibble
data <- as_tibble(data)
class(data)

## [1] "tbl_df"     "tbl"        "data.frame"

data

## # A tibble: 1,000 x 2
##    Date                Sales
##    <dttm>              <dbl>
##  1 2019-01-05 03:00:00 549. 
##  2 2019-03-08 03:00:00  80.2
##  3 2019-03-03 03:00:00 341. 
##  4 2019-01-27 03:00:00 489. 
##  5 2019-02-08 03:00:00 634. 
##  6 2019-03-25 03:00:00 628. 
##  7 2019-02-25 03:00:00 434. 
##  8 2019-02-24 03:00:00 772. 
##  9 2019-01-10 03:00:00  76.1
## 10 2019-02-20 03:00:00 173. 
## # ... with 990 more rows
…
